{"distrits": [
    {
        "distrit": "Lima",
        "id_distrit": 1265
    },
    {
        "distrit": "Ancon",
        "id_distrit": 1266
    },
    {
        "distrit": "Ate",
        "id_distrit": 1267
    },
    {
        "distrit": "Barranco",
        "id_distrit": 1268
    },
    {
        "distrit": "Brena",
        "id_distrit": 1269
    },
    {
        "distrit": "Carabayllo",
        "id_distrit": 1270
    },
    {
        "distrit": "Chaclacayo",
        "id_distrit": 1271
    },
    {
        "distrit": "Chorrillos",
        "id_distrit": 1272
    },
    {
        "distrit": "Cieneguilla",
        "id_distrit": 1273
    },
    {
        "distrit": "Comas",
        "id_distrit": 1274
    },
    {
        "distrit": "ElAgustino",
        "id_distrit": 1275
    },
    {
        "distrit": "Independencia",
        "id_distrit": 1276
    },
    {
        "distrit": "JesusMaria",
        "id_distrit": 1277
    },
    {
        "distrit": "LaMolina",
        "id_distrit": 1278
    },
    {
        "distrit": "LaVictoria",
        "id_distrit": 1279
    },
    {
        "distrit": "Lince",
        "id_distrit": 1280
    },
    {
        "distrit": "LosOlivos",
        "id_distrit": 1281
    },
    {
        "distrit": "Lurigancho",
        "id_distrit": 1282
    },
    {
        "distrit": "Lurin",
        "id_distrit": 1283
    },
    {
        "distrit": "MagdalenadelMar",
        "id_distrit": 1284
    },
    {
        "distrit": "PuebloLibre",
        "id_distrit": 1285
    },
    {
        "distrit": "Miraflores",
        "id_distrit": 1286
    },
    {
        "distrit": "Pachacamac",
        "id_distrit": 1287
    },
    {
        "distrit": "Pucusana",
        "id_distrit": 1288
    },
    {
        "distrit": "PuentePiedra",
        "id_distrit": 1289
    },
    {
        "distrit": "PuntaHermosa",
        "id_distrit": 1290
    },
    {
        "distrit": "PuntaNegra",
        "id_distrit": 1291
    },
    {
        "distrit": "Rimac",
        "id_distrit": 1292
    },
    {
        "distrit": "SanBartolo",
        "id_distrit": 1293
    },
    {
        "distrit": "SanBorja",
        "id_distrit": 1294
    },
    {
        "distrit": "SanIsidro",
        "id_distrit": 1295
    },
    {
        "distrit": "SanJuandeLurigancho",
        "id_distrit": 1296
    },
    {
        "distrit": "SanJuandeMiraflores",
        "id_distrit": 1297
    },
    {
        "distrit": "SanLuis",
        "id_distrit": 1298
    },
    {
        "distrit": "SanMartindePorres",
        "id_distrit": 1299
    },
    {
        "distrit": "SanMiguel",
        "id_distrit": 1300
    },
    {
        "distrit": "SantaAnita",
        "id_distrit": 1301
    },
    {
        "distrit": "SantaMariadelMar",
        "id_distrit": 1302
    },
    {
        "distrit": "SantaRosa",
        "id_distrit": 1303
    },
    {
        "distrit": "SantiagodeSurco",
        "id_distrit": 1304
    },
    {
        "distrit": "Surquillo",
        "id_distrit": 1305
    },
    {
        "distrit": "VillaElSalvador",
        "id_distrit": 1306
    },
    {
        "distrit": "VillaMariadelTriunfo",
        "id_distrit": 1307
    },
    {
        "distrit": "Surco",
        "id_distrit": 1384
    }
]

}